<?xml version="1.0" encoding="iso-8859-1"?>
<!-- Generator: Adobe Illustrator 19.0.0, SVG Export Plug-In . SVG Version: 6.00 Build 0)  -->
<svg version="1.1" id="Layer_1" xmlns="http://www.w3.org/2000/svg" xmlns:xlink="http://www.w3.org/1999/xlink" x="0px" y="0px"
	 viewBox="0 0 512 512" style="enable-background:new 0 0 512 512;" xml:space="preserve">
<g transform="translate(0 -1)">
	<path style="fill:#43B05B;" d="M264.828,389.414c0-67.972,55.614-123.586,123.586-123.586c34.428,0,66.207,14.124,88.276,37.076V1
		H0v476.69h301.903C278.952,455.621,264.828,423.841,264.828,389.414"/>
	<path style="fill:#F0CE49;" d="M385.766,265.828c0.883,0,1.766,0,2.648,0c34.428,0,66.207,14.124,88.276,37.076v-63.559
		L384,149.303l92.69-91.807V1h-56.497L176.552,244.641V1h-70.621v105.931H0v70.621h105.931v137.71L92.69,328.503L0,421.193v56.497
		h56.497l271.007-271.007L385.766,265.828z"/>
	<path style="fill:#ED8B1B;" d="M512,389.414C512,457.386,456.386,513,388.414,513s-123.586-55.614-123.586-123.586
		s55.614-123.586,123.586-123.586S512,321.441,512,389.414"/>
	<path style="fill:#FFFFFF;" d="M417.545,323.207l-78.566,78.566l-12.359,49.434l50.317-12.359l78.565-78.566
		c5.297-5.297,5.297-13.241,0-18.538l-19.421-19.421C430.786,317.91,422.841,317.91,417.545,323.207"/>
	
		<rect x="405.203" y="337.295" transform="matrix(-0.7071 0.7071 -0.7071 -0.7071 964.024 328.2437)" style="fill:#C9C3C3;" width="17.655" height="52.965"/>
</g>
<g>
</g>
<g>
</g>
<g>
</g>
<g>
</g>
<g>
</g>
<g>
</g>
<g>
</g>
<g>
</g>
<g>
</g>
<g>
</g>
<g>
</g>
<g>
</g>
<g>
</g>
<g>
</g>
<g>
</g>
</svg>
