<?xml version="1.0" encoding="iso-8859-1"?>
<!-- Generator: Adobe Illustrator 19.0.0, SVG Export Plug-In . SVG Version: 6.00 Build 0)  -->
<svg version="1.1" id="Layer_1" xmlns="http://www.w3.org/2000/svg" xmlns:xlink="http://www.w3.org/1999/xlink" x="0px" y="0px"
	 viewBox="0 0 512 512" style="enable-background:new 0 0 512 512;" xml:space="preserve">
<g transform="translate(0 -1)">
	<path style="fill:#43B05B;" d="M264.828,389.414c0-67.972,55.614-123.586,123.586-123.586c34.428,0,66.207,14.124,88.276,37.076V1
		H0v476.69h301.903C278.952,455.621,264.828,423.841,264.828,389.414"/>
	<path style="fill:#F0CE49;" d="M385.766,265.828c0.883,0,1.766,0,2.648,0c34.428,0,66.207,14.124,88.276,37.076v-63.559
		L384,149.303l92.69-91.807V1h-56.497L176.552,244.641V1h-70.621v105.931H0v70.621h105.931v137.71L92.69,328.503L0,421.193v56.497
		h56.497l271.007-271.007L385.766,265.828z"/>
	<path style="fill:#444C6D;" d="M512,389.414C512,457.386,456.386,513,388.414,513s-123.586-55.614-123.586-123.586
		s55.614-123.586,123.586-123.586S512,321.441,512,389.414"/>
	<g>
		<polygon style="fill:#B3ADD5;" points="317.793,451.207 300.138,451.207 300.138,398.241 353.103,398.241 353.103,415.897 
			317.793,415.897 		"/>
		<path style="fill:#B3ADD5;" d="M388.414,468.862c-36.193,0-67.972-24.717-76.8-59.145c-0.883-4.414,1.766-9.71,6.179-10.593
			c4.414-0.883,9.71,1.766,10.593,6.179c7.062,26.483,31.779,45.903,60.028,45.903c34.428,0,61.793-27.366,61.793-61.793
			s-27.366-61.793-61.793-61.793c-22.069,0-42.372,11.476-53.848,30.897c-2.648,4.414-7.945,5.297-12.359,3.531
			c-4.414-2.648-5.297-7.945-3.531-12.359c14.124-24.717,40.607-39.724,68.855-39.724c44.138,0,79.448,35.31,79.448,79.448
			S432.552,468.862,388.414,468.862z"/>
	</g>
</g>
<g>
</g>
<g>
</g>
<g>
</g>
<g>
</g>
<g>
</g>
<g>
</g>
<g>
</g>
<g>
</g>
<g>
</g>
<g>
</g>
<g>
</g>
<g>
</g>
<g>
</g>
<g>
</g>
<g>
</g>
</svg>
