<?xml version="1.0" encoding="iso-8859-1"?>
<!-- Generator: Adobe Illustrator 19.0.0, SVG Export Plug-In . SVG Version: 6.00 Build 0)  -->
<svg version="1.1" id="Layer_1" xmlns="http://www.w3.org/2000/svg" xmlns:xlink="http://www.w3.org/1999/xlink" x="0px" y="0px"
	 viewBox="0 0 512 512" style="enable-background:new 0 0 512 512;" xml:space="preserve">
<g transform="translate(0 -1)">
	<path style="fill:#43B05B;" d="M264.828,389.414c0-67.972,55.614-123.586,123.586-123.586c34.428,0,66.207,14.124,88.276,37.076V1
		H0v476.69h301.903C278.952,455.621,264.828,423.841,264.828,389.414"/>
	<path style="fill:#F0CE49;" d="M385.766,265.828c0.883,0,1.766,0,2.648,0c34.428,0,66.207,14.124,88.276,37.076v-63.559
		L384,149.303l92.69-91.807V1h-56.497L176.552,244.641V1h-70.621v105.931H0v70.621h105.931v137.71L92.69,328.503L0,421.193v56.497
		h56.497l271.007-271.007L385.766,265.828z"/>
	<path style="fill:#ED8B1B;" d="M512,389.414C512,457.386,456.386,513,388.414,513s-123.586-55.614-123.586-123.586
		s55.614-123.586,123.586-123.586S512,321.441,512,389.414"/>
	<g>
		<path style="fill:#FFFFFF;" d="M394.593,389.414h-11.476c-21.186-8.828-37.959-30.897-37.959-52.966v-17.655h88.276v17.655
			C432.552,358.517,415.779,380.586,394.593,389.414"/>
		<path style="fill:#FFFFFF;" d="M382.234,389.414h11.476c21.186,8.828,37.959,30.897,37.959,52.966v17.655h-87.393v-17.655
			C344.276,420.31,361.048,398.241,382.234,389.414"/>
	</g>
</g>
<g>
</g>
<g>
</g>
<g>
</g>
<g>
</g>
<g>
</g>
<g>
</g>
<g>
</g>
<g>
</g>
<g>
</g>
<g>
</g>
<g>
</g>
<g>
</g>
<g>
</g>
<g>
</g>
<g>
</g>
</svg>
